{
    "$schema": "http://json-schema.org/draft-07/schema",
    "title": "BärCODE schema v0.0.1",
    "type": "object",
    "required": [
        "first_name",
        "last_name",
        "date_of_birth",
        "disease_type",
        "procedures",
        "procedure_operator"
    ],
    "properties": {
        "first_name": {
            "description": "Person first name",
            "type": "string"
        },
        "last_name": {
            "description": "Person last name",
            "type": "string"
        },
        "date_of_birth": {
            "description": "Date of birth",
            "type": "string",
            "format": "date-time"
        },
        "disease_type": {
            "description": "The type of disease",
            "type": "integer",
            "minimum": 0,
            "maximum": 1
        },
        "procedures": {
            "description": "The executed procedures",
            "type": "array",
            "minItems": 1,
            "items": { "$ref":  "#/definitions/procedure" }
        },
        "procedure_operator": {
            "description": "Test lab or clinic performing procedure",
            "type": "string"
        },
        "procedure_result": {
            "description": "The outcome of the procedure",
            "type": "boolean"
        }
    },
    "definitions": {
        "procedure" : {
            "type": "object",
            "description": "A finished procedure",
            "required": ["type", "time"],
            "properties": {
                "type": {
                    "description": "The type of the procedure",
                    "type": "integer",
                    "minimum": 0,
                    "maximum": 7
                },
                "time": {
                    "description": "The time of the procedure",
                    "type": "string",
                    "format": "date-time"
                }
            }
        }
    }
}
